Time_Period = 7.6000000000d-01
Delt = 1.0000000000d-04
Nstep = 160
ifq = 20
ifq_tq = 10000
rhoinf = 5.0000000000d-01
Mode = 0
T_START = 6.0000000000e-01
InitPress = 8.2000000000d+01
DENS_AIR = 1.0000000000d+00
VISC_AIR = 3.0000000000d-02
WBC_TauNor = 1.0000000000d+02
WBC_TauTan = 1.0000000000d+02
Adap_Int_Level = 0
NS_hessian = 1
NS_GMRES_tol = 1.0000000000d-06
NS_GMRES_itermax = 250
NS_GMRES_itermin = 50
NS_NL_Utol = 1.0000000000d-03
NS_NL_Ptol = 1.0000000000d-03
NS_NL_itermax = 3
Mesh_GMRES_tol = 1.0000000000d-03
Mesh_GMRES_itermax = 400
Mesh_GMRES_itermin = 50
NPatch = 1
NBC_set = 4
Density_Shell = 1.0000000000d+00
E_Shell = 1.0000000000d+07
nu_Shell = 4.9500000000d-01
Thickness_Shell = 4.2700000000d-02
Material_Shell = 4
Coef_a = 2.0000000000d+06
Coef_b = 6.0000000000d+05
Coef_c = 1.0000000000d+02
MtCoef_1 = 5.4084375000e+05
MtCoef_2 = 1.0627819632e+05
MtCoef_3 = 3.8187797100e+01
MtCoef_4 = 0.0000000000d+00
MtCoef_5 = 1.0000000000d+00
fib_ang = 4.5000000000e+01
Density_Stent = 8.3000000000d+00
E_Stent = 1.7700000000d+12
nu_Stent = 2.2600000000d-01
Thickness_Stent = 1.0000000000d-02
Material_Stent = 0
NGauss_TH_Shell = 3
Shell_CG_Tol = 1.0000000000d-09
contact_k1 = 1.0000000000d+08
contact_k2 = 0.0000000000d+00
contact_k3 = 5.0000000000d-03
contact_pow = 3
contact_cutoff = 1.0000000000d-01
contact_lox = -1.7000000000d+00
contact_loy = -1.7000000000d+00
contact_loz = -5.0000000000d-01
contact_hix = 1.7000000000d+00
contact_hiy = 1.7000000000d+00
contact_hiz = 2.0000000000d+00
contact_nx = 30
contact_ny = 30
contact_nz = 30
Damping_a = 2.0000000000d+02
Damping_b = 0.0000000000d+00
